${AnsiColor.RED}
 .----------------.  .----------------.  .----------------.  .----------------.  .----------------.   .----------------.  .----------------.  .----------------.  .----------------.
| .--------------. || .--------------. || .--------------. || .--------------. || .--------------. | | .--------------. || .--------------. || .--------------. || .--------------. |
| |   ______     | || |      __      | || |  _________   | || |     ______   | || |  ____  ____  | | | |  ________    | || |  _________   | || | ____    ____ | || |     ____     | |
| |  |_   __ \   | || |     /  \     | || | |  _   _  |  | || |   .' ___  |  | || | |_   ||   _| | | | | |_   ___ `.  | || | |_   ___  |  | || ||_   \  /   _|| || |   .'    `.   | |
| |    | |__) |  | || |    / /\ \    | || | |_/ | | \_|  | || |  / .'   \_|  | || |   | |__| |   | | | |   | |   `. \ | || |   | |_  \_|  | || |  |   \/   |  | || |  /  .--.  \  | |
| |    |  ___/   | || |   / ____ \   | || |     | |      | || |  | |         | || |   |  __  |   | | | |   | |    | | | || |   |  _|  _   | || |  | |\  /| |  | || |  | |    | |  | |
| |   _| |_      | || | _/ /    \ \_ | || |    _| |_     | || |  \ `.___.'\  | || |  _| |  | |_  | | | |  _| |___.' / | || |  _| |___/ |  | || | _| |_\/_| |_ | || |  \  `--'  /  | |
| |  |_____|     | || ||____|  |____|| || |   |_____|    | || |   `._____.'  | || | |____||____| | | | | |________.'  | || | |_________|  | || ||_____||_____|| || |   `.____.'   | |
| |              | || |              | || |              | || |              | || |              | | | |              | || |              | || |              | || |              | |
| '--------------' || '--------------' || '--------------' || '--------------' || '--------------' | | '--------------' || '--------------' || '--------------' || '--------------' |
 '----------------'  '----------------'  '----------------'  '----------------'  '----------------'   '----------------'  '----------------'  '----------------'  '----------------'
